{
    "default": {
        "feature_aps_enable": true,
        "feature_auth_enable": true,
        "feature_3a_enable": true,
        "feature_evication_enable": true,
        "feature_resolution_enable": true,
        "feature_government_enalbe": true,
        "feature_sound_enable": true,
        "feature_flash_enable": true,
        "feature_fps_enable": true,
        "feature_rio_enable": true,
        "limit_3rd_app_size": [
            "com.mt.mtxx.mtxx.sub.preview",
            "com.benqu.wuta.sub.preview",
            "com.huajiao.camera.sub.preview",
            "com.mt.mtxx.mtxx.main.preview",
            "com.benqu.wuta.main.preview",
            "com.huajiao.camera.main.preview",
            "com.gorgeous.lite.main.preview",
            "com.meitu.meiyancamera.main.preview",
            "com.meitu.wheecam.main.preview",
            "com.huajiao.camera.sub.Texture"
        ],
        "limit_3rd_app_size_byLevel": [
            "autotest.oplus.com.simulatedlivebroadcast.level1",
            "com.fingogroup.fingo.level1",
            "com.rapido.rider.level1"
        ],
        "skip_rus_check_list": [
            "android",
            "com.oplus.engineercamera"
        ],
        "disable_camera_shutter_sound_app_list": [
            "com.facebook.orca",
            "com.facebook.orca",
            "com.instagram.android",
            "com.facebook.katana"
        ],
        "defaultMaxPreviewWidth": 3216,
        "defaultMaxPreviewHeight": 3216,
        "previewSizeForAPI1Width": 3168,
        "previewSizeForAPI1Height": 1440,
        "resolutionFilterForNotAddSizeAPI1": [
            "4624x3468",
            "4624x2608",
            "4624x2080",
            "4608x3456",
            "2592x1944"
        ]
    },
    "org.codeaurora.ims": {
        "isFreeDomEvictionPackge": true
    },
    "android": {
        "isFreeDomEvictionPackge": true
    },
    "vendor.client.pid": {
        "isFreeDomEvictionPackge": true
    },
    "com.teamtalk.im": {
        "previewSizeForAPI1Width": 3216,
        "previewSizeForAPI1Height": 1440
    },
    "com.tencent.qqmusic": {
        "resolutionFilterForNotAddSizeAPI1": [
            "2592x1168"
        ]
    },
    "com.ss.android.ugc.aweme": {
        "app_enable_rio": true
    },
    "com.facebook.katana": {
        "app_enable_rio": true
    },
    "com.facebook.orca": {
        "app_enable_rio": true
    },
    "com.whatsapp.w4b": {
        "app_enable_rio": true
    },
    "com.instagram.android": {
        "app_enable_rio": true
    },
    "com.ss.android.ugc.trill": {
        "app_enable_rio": true
    },
    "com.oplus.engineercamera": {
        "resolutionFilterForNotAddSizeAPI1": [
            "4624x3468",
            "4160x3120",
            "4160x2340",
            "4096x2160",
            "2688x1512",
            "2592x1944",
            "2592x1940",
            "2592x1458",
            "2592x1232",
            "2592x1196",
            "2592x1920"
        ]
    },
    "com.skype.raider": {
        "needLimitFpsForAPI1": true,
        "maxPreviewWidthForAPI2": 1920,
        "maxPreviewHeightForAPI2": 1080,
        "thirdPartyAppLimitPicture": true
    },
    "com.vkontakte.android": {
        "needLimitFpsForAPI1": true
    },
    "jp.naver.linecamera.android": {
        "needLimitFpsForAPI1": true
    },
    "com.blink.academy.nomopro": {
        "needLimitFpsForAPI1": true
    },
    "com.microsoft.office.excel": {
        "needLimitFpsForAPI1": true
    },
    "com.eg.android.AlipayGphone": {
        "needLimitFpsForAPI1": true
    },
    "com.smile.gifmaker": {
        "app_enable_rio": true,
        "adjustInvalidFpsForAPI1": true
    },
    "com.taobao.taobao": {
        "checkToAddPreviewCallbackForAPI1": true
    },
    "com.example.anchortooldemo": {
        "checkToAddPreviewCallbackForAPI1": true
    },
    "autotest.oppo.com.simulatedlivebroadcast": {
        "thirdPartyAppLimitPicture":true,
        "thirdPartyAppWidthLimitForCam0API2":4624,
        "thirdPartyAppHeightLimitForCam0API2":3468,
        "thirdPartyAppWidthLimitForCam1API2":2400,
        "thirdPartyAppHeightLimitForCam1API2":1792,
        "resolutionFilterForNotAddSizeAPI1": [
            "4624x3468",
            "4624x2608",
            "4624x2080",
            "4608x3456",
            "2592x1944"
        ]
    },
    "com.manboker.headportrait":{
        "previewSizeForAPI1Width": 2160,
        "previewSizeForAPI1Height": 1080
    },
    "im.kumu.ph":{
        "previewSizeForAPI1Width": 2304,
        "previewSizeForAPI1Height": 1046,
        "feature_resolution_enable":true
    }
}
