[
    {
        "table_name" : "meta_alert_threshold",
        "model_21001" : [
            ["cpu_app_overload_alert", "default", "me.ele.napos", 0, 1, 3058],
            ["cpu_app_overload_alert", "default", "com.heytap.pictorial", 0, 1, 2531],
            ["cpu_app_overload_alert", "default", "com.sdu.didi.psnger", 0, 1, 1470],
            ["cpu_app_overload_alert", "default", "mediaex", 0, 1, 1004],
            ["cpu_app_overload_alert", "default", "mediacodec", 0, 1, 3690],
            ["cpu_app_overload_alert", "default", "system", 0, 1,  2070],
            ["cpu_app_overload_alert", "default", "com.baidu.input_oppo", 0, 1, 1199],
            ["cpu_app_overload_alert", "default", "com.kugou.android", 0, 1, 1177],
            ["cpu_app_overload_alert", "default", "com.sohu.inputmethod.sogou", 0, 1, 456],
            ["cpu_app_overload_alert", "default", "com.tencent.mm", 0, 1, 1634],
            ["cpu_app_overload_alert", "default", "com.google.android.providers.media.module", 0, 1, 1218],
            ["cpu_app_overload_alert", "default", "cn.xuexi.android", 0, 1, 1235],
            ["cpu_app_overload_alert", "default", "com.baidu.searchbox", 0, 1, 324],
            ["cpu_app_overload_alert", "default", "com.tencent.tmgp.sgame", 0, 1, 614],
            ["cpu_app_overload_alert", "default", "com.tencent.mobileqq", 0, 1, 942],
            ["cpu_app_overload_alert", "default", "cameraserver", 0, 1, 473],
            ["cpu_app_overload_alert", "default", "com.coloros.gallery3d", 0, 1, 1084],
            ["cpu_app_overload_alert", "default", "root", 0, 1, 3293],
            ["cpu_app_overload_alert", "default", "com.taobao.taobao", 0, 1, 351],
            ["cpu_app_overload_alert", "default", "com.coloros.exserviceui", 0, 1, 266],
            ["cpu_app_overload_alert", "default", "audioserver", 0, 1, 246],
            ["cpu_app_overload_alert", "default", "com.android.systemui", 0, 1, 172],
            ["cpu_app_overload_alert", "default", "com.ss.android.ugc.aweme", 0, 1, 368],
            ["cpu_app_overload_alert", "default", "media", 0, 1, 201],
            ["cpu_app_overload_alert", "default", "com.ss.android.ugc.aweme", 0, 1, 316],
            ["cpu_app_overload_alert", "default", "radio", 0, 1, 186],
            ["cpu_app_overload_alert", "default", "logd", 0, 1, 195],
            ["cpu_app_overload_alert", "default", "com.oppo.launcher", 0, 1, 58],
            ["cpu_app_overload_alert", "default", "com.eg.android.AlipayGphone", 0, 1, 396],
            ["cpu_app_overload_alert", "default", "com.heytap.browser", 0, 1, 100],
            ["cpu_app_overload_alert", "default", "com.android.mms", 0, 1, 100],
            ["cpu_app_overload_alert", "default", "com.android.launcher", 0, 1, 100],
            ["cpu_app_overload_alert", "default", "com.heytap.yoli", 0, 1, 100],
            ["cpu_app_overload_alert", "default", "com.heytap.speechassist", 0, 1, 100],
            ["cpu_app_overload_alert", "default", "com.coloros.smartsidebar", 0, 1, 100],
            ["cpu_app_overload_alert", "default", "com.coloros.soundrecorder", 0, 1, 100],
            ["cpu_app_overload_alert", "default", "com.android.wallpaper.livepicker", 0, 1, 100],
            ["cpu_app_overload_alert", "default", "com.heytap.market", 0, 1, 100],
            ["cpu_app_overload_alert", "default", "com.heytap.cloud", 0, 1, 100],
            ["cpu_app_overload_alert", "default", "com.coloros.phonemanager", 0, 1, 100],
            ["cpu_app_overload_alert", "default", "com.oppo.camera", 0, 1, 100],
            ["cpu_app_overload_alert", "default", "com.coloros.assistantscreen", 0, 1, 100],
            ["cpu_app_overload_alert", "default", "com.heytap.music", 0, 1, 100],
            ["cpu_app_overload_alert", "default", "com.nearme.gamecenter", 0, 1, 100],
            ["cpu_app_overload_alert", "default", "com.heytap.themestore", 0, 1, 100],
            ["cpu_app_overload_alert", "default", "com.android.contacts", 0, 1, 100],
            ["cpu_app_overload_alert", "default", "com.heytap.xgame", 0, 1, 100],
            ["cpu_app_overload_alert", "default", "com.heytap.reader", 0, 1, 100],
            ["cpu_app_overload_alert", "default", "com.heytap.book", 0, 1, 100],
            ["cpu_app_overload_alert", "default", "com.coloros.gamespace", 0, 1, 100],
            ["cpu_app_overload_alert", "default", "com.coloros.calendar", 0, 1, 100],
            ["cpu_app_overload_alert", "default", "com.coloros.videoeditor", 0, 1, 100],
            ["cpu_app_overload_alert", "default", "com.oplus.camera", 0, 1, 100],
            ["cpu_app_overload_alert", "default", "com.heytap.quicksearchbox", 0, 1, 100],
            ["cpu_app_overload_alert", "default", "com.heytap.usercenter", 0, 1, 100],
            ["cpu_app_overload_alert", "default", "com.nearme.play", 0, 1, 100],
            ["cpu_app_overload_alert", "default", "com.oplus.vip", 0, 1, 100],
            ["cpu_app_overload_alert", "default", "com.coloros.note", 0, 1, 100],
            ["cpu_app_overload_alert", "default", "com.finshell.wallet", 0, 1, 100],
            ["cpu_app_overload_alert", "default", "com.coloros.filemanager", 0, 1, 100],
            ["cpu_app_overload_alert", "default", "com.coloros.backuprestore", 0, 1, 100],
            ["cpu_app_overload_alert", "default", "com.coloros.oshare", 0, 1, 100],
            ["cpu_app_overload_alert", "default", "com.coloros.alarmclock", 0, 1, 100],

            ["cpu_app_overload_alert", "cpu_energy_pon_sall_bg", "com.android.systemui", 0, 1, 80],
            ["cpu_app_overload_alert", "cpu_energy_pon_sall_bg", "com.android.systemui", 1, 99999999, 96],
            ["cpu_app_overload_alert", "wifi_time_poff_sall_bg", "com.tencent.mm", 0, 39, 80],
            ["cpu_app_overload_alert", "wifi_time_poff_sall_bg", "com.tencent.mm", 39, 99999999, 92],
            ["cpu_app_overload_alert", "cpu_energy_poff_son_fg", "com.tencent.mm", 0, 40, 80],
            ["cpu_app_overload_alert", "cpu_energy_poff_son_fg", "com.tencent.mm", 40, 99999999, 94],
            ["cpu_app_overload_alert", "audio_time_poff_soff_bg_speaker", "com.tencent.mm", 0, 22, 80],
            ["cpu_app_overload_alert", "audio_time_poff_soff_bg_speaker", "com.tencent.mm", 22, 99999999, 187],
            ["cpu_app_overload_alert", "cpu_energy_poff_son_fg", "com.tencent.mobileqq", 0, 2, 94],
            ["cpu_app_overload_alert", "cpu_energy_poff_son_fg", "com.tencent.mobileqq", 2, 7, 80],
            ["cpu_app_overload_alert", "cpu_energy_poff_son_fg", "com.tencent.mobileqq", 7, 99999999, 219],
            ["cpu_app_overload_alert", "wifi_time_poff_sall_bg", "com.tencent.mobileqq", 0, 15, 111],
            ["cpu_app_overload_alert", "wifi_time_poff_sall_bg", "com.tencent.mobileqq", 15, 51, 80],
            ["cpu_app_overload_alert", "wifi_time_poff_sall_bg", "com.tencent.mobileqq", 51, 99999999, 152],
            ["cpu_app_overload_alert", "cpu_energy_pon_sall_bg", "com.eg.android.AlipayGphone", 0, 99999999, 80],
            ["cpu_app_overload_alert", "audio_time_poff_sall_bg_bluetooth", "com.ss.android.ugc.aweme", 0, 385, 80],
            ["cpu_app_overload_alert", "audio_time_poff_sall_bg_bluetooth", "com.ss.android.ugc.aweme", 385, 99999999, 112]
        ],
        "default" : [
            ["cpu_app_overload_alert", "default", "me.ele.napos", 0, 1, 3058],
            ["cpu_app_overload_alert", "default", "com.heytap.pictorial", 0, 1, 2531],
            ["cpu_app_overload_alert", "default", "com.sdu.didi.psnger", 0, 1, 1470],
            ["cpu_app_overload_alert", "default", "mediaex", 0, 1, 1004],
            ["cpu_app_overload_alert", "default", "mediacodec", 0, 1, 3690],
            ["cpu_app_overload_alert", "default", "system", 0, 1,  2070],
            ["cpu_app_overload_alert", "default", "com.baidu.input_oppo", 0, 1, 1199],
            ["cpu_app_overload_alert", "default", "com.kugou.android", 0, 1, 1177],
            ["cpu_app_overload_alert", "default", "com.sohu.inputmethod.sogou", 0, 1, 456],
            ["cpu_app_overload_alert", "default", "com.tencent.mm", 0, 1, 1634],
            ["cpu_app_overload_alert", "default", "com.google.android.providers.media.module", 0, 1, 1218],
            ["cpu_app_overload_alert", "default", "cn.xuexi.android", 0, 1, 1235],
            ["cpu_app_overload_alert", "default", "com.baidu.searchbox", 0, 1, 324],
            ["cpu_app_overload_alert", "default", "com.tencent.tmgp.sgame", 0, 1, 614],
            ["cpu_app_overload_alert", "default", "com.tencent.mobileqq", 0, 1, 942],
            ["cpu_app_overload_alert", "default", "cameraserver", 0, 1, 473],
            ["cpu_app_overload_alert", "default", "com.coloros.gallery3d", 0, 1, 1084],
            ["cpu_app_overload_alert", "default", "root", 0, 1, 3293],
            ["cpu_app_overload_alert", "default", "com.taobao.taobao", 0, 1, 351],
            ["cpu_app_overload_alert", "default", "com.coloros.exserviceui", 0, 1, 266],
            ["cpu_app_overload_alert", "default", "audioserver", 0, 1, 246],
            ["cpu_app_overload_alert", "default", "com.android.systemui", 0, 1, 172],
            ["cpu_app_overload_alert", "default", "com.ss.android.ugc.aweme", 0, 1, 368],
            ["cpu_app_overload_alert", "default", "media", 0, 1, 201],
            ["cpu_app_overload_alert", "default", "com.ss.android.ugc.aweme", 0, 1, 316],
            ["cpu_app_overload_alert", "default", "radio", 0, 1, 186],
            ["cpu_app_overload_alert", "default", "logd", 0, 1, 195],
            ["cpu_app_overload_alert", "default", "com.oppo.launcher", 0, 1, 58],
            ["cpu_app_overload_alert", "default", "com.eg.android.AlipayGphone", 0, 1, 396],
            ["cpu_app_overload_alert", "default", "com.heytap.browser", 0, 1, 100],
            ["cpu_app_overload_alert", "default", "com.android.mms", 0, 1, 100],
            ["cpu_app_overload_alert", "default", "com.android.launcher", 0, 1, 100],
            ["cpu_app_overload_alert", "default", "com.heytap.yoli", 0, 1, 100],
            ["cpu_app_overload_alert", "default", "com.heytap.speechassist", 0, 1, 100],
            ["cpu_app_overload_alert", "default", "com.coloros.smartsidebar", 0, 1, 100],
            ["cpu_app_overload_alert", "default", "com.coloros.soundrecorder", 0, 1, 100],
            ["cpu_app_overload_alert", "default", "com.android.wallpaper.livepicker", 0, 1, 100],
            ["cpu_app_overload_alert", "default", "com.heytap.market", 0, 1, 100],
            ["cpu_app_overload_alert", "default", "com.heytap.cloud", 0, 1, 100],
            ["cpu_app_overload_alert", "default", "com.coloros.phonemanager", 0, 1, 100],
            ["cpu_app_overload_alert", "default", "com.oppo.camera", 0, 1, 100],
            ["cpu_app_overload_alert", "default", "com.coloros.assistantscreen", 0, 1, 100],
            ["cpu_app_overload_alert", "default", "com.heytap.music", 0, 1, 100],
            ["cpu_app_overload_alert", "default", "com.nearme.gamecenter", 0, 1, 100],
            ["cpu_app_overload_alert", "default", "com.heytap.themestore", 0, 1, 100],
            ["cpu_app_overload_alert", "default", "com.android.contacts", 0, 1, 100],
            ["cpu_app_overload_alert", "default", "com.heytap.xgame", 0, 1, 100],
            ["cpu_app_overload_alert", "default", "com.heytap.reader", 0, 1, 100],
            ["cpu_app_overload_alert", "default", "com.heytap.book", 0, 1, 100],
            ["cpu_app_overload_alert", "default", "com.coloros.gamespace", 0, 1, 100],
            ["cpu_app_overload_alert", "default", "com.coloros.calendar", 0, 1, 100],
            ["cpu_app_overload_alert", "default", "com.coloros.videoeditor", 0, 1, 100],
            ["cpu_app_overload_alert", "default", "com.oplus.camera", 0, 1, 100],
            ["cpu_app_overload_alert", "default", "com.heytap.quicksearchbox", 0, 1, 100],
            ["cpu_app_overload_alert", "default", "com.heytap.usercenter", 0, 1, 100],
            ["cpu_app_overload_alert", "default", "com.nearme.play", 0, 1, 100],
            ["cpu_app_overload_alert", "default", "com.oplus.vip", 0, 1, 100],
            ["cpu_app_overload_alert", "default", "com.coloros.note", 0, 1, 100],
            ["cpu_app_overload_alert", "default", "com.finshell.wallet", 0, 1, 100],
            ["cpu_app_overload_alert", "default", "com.coloros.filemanager", 0, 1, 100],
            ["cpu_app_overload_alert", "default", "com.coloros.backuprestore", 0, 1, 100],
            ["cpu_app_overload_alert", "default", "com.coloros.oshare", 0, 1, 100],
            ["cpu_app_overload_alert", "default", "com.coloros.alarmclock", 0, 1, 100]
        ]
    }
]